FinanceSocial-Subjectivity
…
#wideDF #this displays the data
#longDF

Lets first look only at the subjectivity data

#We can use some descriptive statistics to see how people on average assess the different activities

#Get mean of all ratings and activities
data <- longDF %>%
  group_by(Activity) %>%
  get_summary_stats(Ability, Confidence, Experience, Effort, Subjectivity, type = "mean_se")#this also gets "se" or standard error - we need that for the error bars in our bar plot
data#shows the new, summarized data

## # A tibble: 55 x 5
##    Activity          variable         n  mean    se
##    <fct>             <chr>        <dbl> <dbl> <dbl>
##  1 Acting Ethically  Ability         49  5.31 0.146
##  2 Acting Ethically  Confidence      49  5.49 0.17 
##  3 Acting Ethically  Effort          49  3.26 0.162
##  4 Acting Ethically  Experience      49  3.84 0.102
##  5 Acting Ethically  Subjectivity    49  3.49 0.249
##  6 Caring for Others Ability         49  5.04 0.212
##  7 Caring for Others Confidence      49  5.49 0.191
##  8 Caring for Others Effort          49  3.45 0.17 
##  9 Caring for Others Experience      49  3.86 0.146
## 10 Caring for Others Subjectivity    49  3.08 0.238
## # ... with 45 more rows
…
